0 0,00733 0,00728 100000 99332 65,92972 0 0,00579 0,00576 100000 99470 76,72679
1 0,00064 0,00064 99272 99240 65,41262 1 0,00054 0,00054 99424 99397 76,17064
2 0,00043 0,00043 99208 99187 64,45430 2 0,00031 0,00031 99371 99355 75,21139
3 0,00030 0,00030 99166 99151 63,48152 3 0,00027 0,00027 99340 99326 74,23487
4 0,00029 0,00029 99136 99121 62,50072 4 0,00023 0,00023 99312 99301 73,25501
5 0,00030 0,00030 99107 99092 61,51890 5 0,00020 0,00020 99289 99279 72,27209
6 0,00029 0,00029 99077 99062 60,53737 6 0,00018 0,00018 99269 99260 71,28627
7 0,00024 0,00024 99048 99036 59,55472 7 0,00021 0,00021 99251 99241 70,29914
8 0,00024 0,00024 99024 99012 58,56917 8 0,00016 0,00016 99231 99223 69,31370
9 0,00022 0,00022 99000 98990 57,58296 9 0,00015 0,00015 99215 99207 68,32481
10 0,00027 0,00027 98979 98965 56,59548 10 0,00018 0,00018 99200 99191 67,33494
11 0,00024 0,00024 98952 98940 55,61050 11 0,00021 0,00021 99183 99172 66,34664
12 0,00032 0,00032 98928 98912 54,62381 12 0,00020 0,00020 99162 99152 65,36015
13 0,00034 0,00034 98896 98880 53,64129 13 0,00027 0,00027 99143 99129 64,37293
14 0,00044 0,00044 98863 98841 52,65925 14 0,00030 0,00030 99116 99101 63,39017
15 0,00060 0,00060 98820 98790 51,68203 15 0,00040 0,00040 99086 99067 62,40897
16 0,00072 0,00072 98761 98725 50,71266 16 0,00039 0,00039 99047 99028 61,43360
17 0,00089 0,00089 98690 98646 49,74879 17 0,00042 0,00042 99008 98987 60,45742
18 0,00128 0,00128 98602 98538 48,79282 18 0,00047 0,00047 98966 98943 59,48272
19 0,00134 0,00134 98475 98409 47,85478 19 0,00050 0,00050 98920 98896 58,51020
20 0,00161 0,00161 98344 98264 46,91819 20 0,00055 0,00055 98871 98844 57,53909
21 0,00165 0,00165 98185 98104 45,99303 21 0,00053 0,00053 98817 98791 56,57031
22 0,00195 0,00195 98023 97928 45,06836 22 0,00059 0,00059 98764 98735 55,60022
23 0,00209 0,00209 97832 97730 44,15524 23 0,00060 0,00060 98706 98676 54,63274
24 0,00214 0,00214 97628 97523 43,24659 24 0,00068 0,00068 98646 98613 53,66550
25 0,00232 0,00232 97419 97306 42,33835 25 0,00070 0,00070 98580 98545 52,70144
26 0,00273 0,00272 97193 97061 41,43557 26 0,00084 0,00084 98511 98470 51,73779
27 0,00316 0,00316 96928 96775 40,54742 27 0,00096 0,00096 98428 98381 50,78090
28 0,00348 0,00347 96622 96454 39,67433 28 0,00108 0,00108 98334 98281 49,82897
29 0,00372 0,00372 96286 96108 38,81080 29 0,00117 0,00117 98228 98171 48,88222
30 0,00396 0,00395 95929 95739 37,95369 30 0,00130 0,00129 98113 98050 47,93901
31 0,00465 0,00464 95550 95328 37,10227 31 0,00152 0,00152 97986 97912 47,00048
32 0,00522 0,00521 95106 94859 36,27287 32 0,00180 0,00179 97837 97749 46,07138
33 0,00567 0,00565 94611 94344 35,46012 33 0,00185 0,00185 97661 97571 45,15331
34 0,00608 0,00607 94076 93791 34,65885 34 0,00201 0,00201 97481 97383 44,23602
35 0,00645 0,00643 93506 93205 33,86730 35 0,00216 0,00216 97285 97180 43,32417
36 0,00716 0,00713 92905 92573 33,08324 36 0,00234 0,00234 97074 96961 42,41691
37 0,00757 0,00754 92242 91894 32,31726 37 0,00236 0,00236 96847 96733 41,51524
38 0,00763 0,00760 91547 91198 31,55896 38 0,00252 0,00252 96619 96498 40,61215
39 0,00791 0,00788 90850 90492 30,79695 39 0,00255 0,00255 96376 96253 39,71330
40 0,00832 0,00829 90134 89761 30,03762 40 0,00268 0,00268 96131 96002 38,81342
41 0,00830 0,00827 89387 89018 29,28445 41 0,00284 0,00284 95873 95737 37,91640
42 0,00841 0,00837 88648 88277 28,52440 42 0,00291 0,00290 95601 95462 37,02286
43 0,00890 0,00886 87906 87517 27,76108 43 0,00311 0,00311 95323 95175 36,12926
44 0,00889 0,00885 87127 86742 27,00468 44 0,00312 0,00311 95027 94879 35,24040
45 0,00951 0,00946 86356 85947 26,24146 45 0,00331 0,00330 94731 94575 34,34884
46 0,01009 0,01004 85539 85110 25,48736 46 0,00353 0,00353 94418 94252 33,46106
47 0,01075 0,01069 84680 84228 24,74070 47 0,00366 0,00365 94085 93913 32,57768
48 0,01162 0,01155 83775 83291 24,00273 48 0,00386 0,00385 93741 93561 31,69527
49 0,01217 0,01210 82807 82306 23,27739 49 0,00416 0,00415 93380 93186 30,81599
50 0,01288 0,01280 81805 81282 22,55629 50 0,00430 0,00429 92993 92793 29,94229
51 0,01402 0,01392 80759 80196 21,84220 51 0,00461 0,00460 92594 92381 29,06920
52 0,01499 0,01487 79634 79042 21,14347 52 0,00500 0,00499 92168 91938 28,20115
53 0,01602 0,01590 78450 77826 20,45515 53 0,00540 0,00538 91708 91461 27,34008
54 0,01653 0,01639 77203 76570 19,77746 54 0,00555 0,00554 91214 90962 26,48537
55 0,01817 0,01800 75937 75254 19,09877 55 0,00628 0,00626 90709 90425 25,63010
56 0,02024 0,02004 74570 73823 18,43972 56 0,00685 0,00683 90141 89833 24,78847
57 0,02117 0,02095 73076 72310 17,80655 57 0,00749 0,00746 89526 89192 23,95541
58 0,02292 0,02266 71545 70734 17,17693 58 0,00785 0,00782 88858 88510 23,13166
59 0,02496 0,02465 69924 69062 16,56360 59 0,00853 0,00849 88163 87789 22,31009
60 0,02861 0,02821 68200 67238 15,96956 60 0,00937 0,00932 87414 87007 21,49686
61 0,02996 0,02952 66276 65298 15,41864 61 0,01013 0,01008 86599 86163 20,69445
62 0,03155 0,03106 64320 63321 14,87237 62 0,01084 0,01078 85726 85264 19,90008
63 0,03421 0,03363 62322 61274 14,33306 63 0,01221 0,01213 84802 84287 19,11159
64 0,03462 0,03403 60226 59201 13,81449 64 0,01262 0,01254 83773 83248 18,34017
65 0,03688 0,03621 58177 57123 13,28357 65 0,01385 0,01376 82723 82153 17,56670
66 0,04221 0,04133 56070 54911 12,76392 66 0,01643 0,01630 81584 80920 16,80480
67 0,03897 0,03823 53752 52725 12,29270 67 0,01549 0,01537 80255 79638 16,07490
68 0,04860 0,04744 51697 50471 11,76144 68 0,02015 0,01995 79022 78234 15,31797
69 0,04377 0,04283 49245 48190 11,32233 69 0,01860 0,01843 77445 76732 14,61956
70 0,04844 0,04730 47135 46021 10,80658 70 0,02161 0,02138 76018 75205 13,88471
71 0,05285 0,05149 44906 43750 10,31824 71 0,02385 0,02357 74393 73516 13,17708
72 0,05095 0,04969 42594 41536 9,85124 72 0,02428 0,02399 72640 71768 12,48306
73 0,06810 0,06586 40477 39145 9,34017 73 0,03215 0,03164 70897 69775 11,77762
74 0,06541 0,06334 37812 36614 8,96345 74 0,03151 0,03102 68653 67589 11,14615
75 0,07193 0,06943 35417 34187 8,53576 75 0,03694 0,03627 66524 65318 10,48695
76 0,08210 0,07886 32958 31658 8,13534 76 0,04335 0,04243 64111 62751 9,86279
77 0,08149 0,07830 30358 29170 7,78902 77 0,04516 0,04416 61391 60036 9,27763
78 0,09054 0,08662 27981 26769 7,40827 78 0,05411 0,05268 58680 57134 8,68317
79 0,09664 0,09218 25558 24380 7,06339 79 0,06075 0,05896 55589 53950 8,13827
80 0,10431 0,09914 23202 22052 6,72985 80 0,06822 0,06597 52311 50586 7,61680
81 0,10809 0,10254 20901 19830 6,41547 81 0,07500 0,07229 48860 47094 7,11947
82 0,11890 0,11223 18758 17705 6,09138 82 0,08649 0,08290 45328 43449 6,63525
83 0,13258 0,12434 16653 15618 5,79822 83 0,09924 0,09455 41570 39605 6,18985
84 0,13594 0,12729 14582 13654 5,55054 84 0,10802 0,10249 37640 35711 5,78398
85 0,15195 0,14122 12726 11827 5,28720 85 0,12293 0,11581 33783 31826 5,38735
86 0,16418 0,15173 10929 10100 5,07445 86 0,13670 0,12795 29870 27959 5,02750
87 0,17790 0,16337 9271 8513 4,89266 87 0,15740 0,14592 26048 24148 4,69181
88 0,18294 0,16761 7756 7106 4,75041 88 0,16991 0,15660 22247 20505 4,40796
89 0,18569 0,16991 6456 5908 4,60628 89 0,18645 0,17055 18763 17163 4,13359
90 0,19034 0,17380 5359 4893 4,44679 90 0,20121 0,18282 15563 14141 3,88071
91 0,20515 0,18606 4428 4016 4,27706 91 0,22459 0,20191 12718 11434 3,63705
92 0,19397 0,17682 3604 3285 4,14048 92 0,23558 0,21076 10150 9080 3,43071
93 0,20782 0,18826 2967 2687 3,92247 93 0,26541 0,23432 8011 7072 3,21332
94 0,20288 0,18419 2408 2186 3,71621 94 0,26445 0,23356 6134 5417 3,04366
95 0,20876 0,18903 1965 1779 3,44237 95 0,29886 0,26001 4701 4090 2,81882
96 0,26969 0,23765 1593 1404 3,12820 96 0,35187 0,29923 3479 2958 2,63358
97 0,23083 0,20695 1215 1089 2,94747 97 0,34224 0,29224 2438 2082 2,54460
98 0,20858 0,18888 963 872 2,58615 98 0,31906 0,27516 1725 1488 2,38882
99 0,20341 0,18463 781 709 2,07193 99 0,34376 0,29334 1251 1067 2,10585
100 0,15201 0,14127 637 910 1,42788 100+ 0,27096 0,23863 884 1566 1,77247