<svg width="518" height="367" viewBox="0 0 518 367" fill="none" xmlns="http://www.w3.org/2000/svg">
<g filter="url(#filter0_d)">
<path d="M329.304 59.685C253.002 53.6653 174.882 49.2809 117.28 46.7023C68.6248 44.5242 47.1294 80.3388 70.1076 123.282L140.668 255.15C165.812 302.14 227.498 314.667 268.98 281.207L370.209 199.551C427.368 153.444 402.514 65.4607 329.304 59.685Z" fill="url(#paint0_linear)"/>
<path d="M323.125 67.4932C245.054 61.1603 164.738 56.5707 106.107 53.9106C57.9649 51.7265 36.6154 86.962 59.0145 129.631L130.866 266.506C155.916 314.225 218.482 326.883 260.111 292.655L364.406 206.901C420.745 160.578 395.823 73.3902 323.125 67.4932Z" fill="white"/>
</g>
<defs>
<filter id="filter0_d" x="0.105469" y="0.60791" width="451.584" height="365.406" filterUnits="userSpaceOnUse" color-interpolation-filters="sRGB">
<feFlood flood-opacity="0" result="BackgroundImageFix"/>
<feColorMatrix in="SourceAlpha" type="matrix" values="0 0 0 0 0 0 0 0 0 0 0 0 0 0 0 0 0 0 127 0"/>
<feOffset dy="4"/>
<feGaussianBlur stdDeviation="25"/>
<feColorMatrix type="matrix" values="0 0 0 0 0 0 0 0 0 0 0 0 0 0 0 0 0 0 0.1 0"/>
<feBlend mode="normal" in2="BackgroundImageFix" result="effect1_dropShadow"/>
<feBlend mode="normal" in="SourceGraphic" in2="effect1_dropShadow" result="shape"/>
</filter>
<linearGradient id="paint0_linear" x1="27.663" y1="44" x2="665.219" y2="265.728" gradientUnits="userSpaceOnUse">
<stop stop-color="#FF95E8"/>
<stop offset="1" stop-color="#FF7474"/>
</linearGradient>
</defs>
</svg>
