<svg width="226" height="208" viewBox="0 0 226 208" fill="none" xmlns="http://www.w3.org/2000/svg">
<ellipse cx="82.8674" cy="82.5" rx="82.8674" ry="82.5" fill="#FF84AC"/>
<g clip-path="url(#clip0)">
<path d="M170.004 36.0679H103.925C100.23 36.0679 97.2241 39.0605 97.2241 42.7389V135.393C97.2241 139.072 100.23 142.064 103.925 142.064H170.004C173.7 142.064 176.705 139.072 176.705 135.393V42.7392C176.705 39.0605 173.699 36.0679 170.004 36.0679Z" fill="#EBEEF2"/>
<path d="M170.004 36.0679H162.221C165.916 36.0679 168.921 39.0605 168.921 42.7389V135.393C168.921 139.072 165.915 142.064 162.221 142.064H170.004C173.699 142.064 176.704 139.072 176.704 135.393V42.7392C176.705 39.0605 173.699 36.0679 170.004 36.0679Z" fill="#D1D6DE"/>
<path d="M145.53 36.7228H128.398C127.219 36.7228 126.263 35.7711 126.263 34.5966C126.263 28.7217 131.063 23.9424 136.964 23.9424C142.865 23.9424 147.666 28.7217 147.666 34.5966C147.666 35.7711 146.71 36.7228 145.53 36.7228ZM130.899 32.4704H143.03C142.148 29.9827 139.761 28.1949 136.964 28.1949C134.167 28.1949 131.781 29.9827 130.899 32.4704Z" fill="#444966"/>
<path d="M206.084 128.111L200.133 127.204C199.765 126.132 199.33 125.086 198.831 124.071L202.394 119.24C203.021 118.395 202.929 117.222 202.183 116.479L194.088 108.419C193.341 107.676 192.165 107.588 191.314 108.209L186.462 111.756C185.445 111.26 184.391 110.826 183.315 110.46L182.404 104.535C182.244 103.498 181.347 102.729 180.294 102.729H168.843C167.79 102.729 166.893 103.498 166.733 104.535L165.822 110.46C164.746 110.826 163.692 111.26 162.676 111.756L157.823 108.209C156.975 107.588 155.796 107.676 155.05 108.419L146.954 116.479C146.208 117.222 146.117 118.395 146.743 119.24L150.306 124.071C149.807 125.086 149.372 126.132 149.004 127.204L143.053 128.111C142.01 128.27 141.239 129.163 141.239 130.212V141.611C141.239 142.66 142.01 143.553 143.053 143.712L149.004 144.619C149.372 145.691 149.807 146.74 150.306 147.752L146.743 152.582C146.117 153.43 146.208 154.601 146.954 155.344L155.05 163.404C155.796 164.146 156.975 164.237 157.823 163.616L162.676 160.067C163.692 160.563 164.746 160.997 165.822 161.362L166.733 167.288C166.893 168.328 167.79 169.093 168.843 169.093H180.294C181.347 169.093 182.244 168.328 182.404 167.288L183.315 161.362C184.391 160.997 185.445 160.563 186.462 160.067L191.314 163.616C192.165 164.237 193.341 164.146 194.088 163.404L202.183 155.344C202.929 154.601 203.021 153.43 202.394 152.582L198.832 147.752C199.33 146.74 199.766 145.691 200.133 144.619L206.085 143.712C207.127 143.553 207.898 142.66 207.898 141.611V130.212C207.898 129.163 207.127 128.27 206.084 128.111ZM187.905 135.913C187.905 143.244 181.934 149.189 174.57 149.189C167.203 149.189 161.232 143.244 161.232 135.913C161.232 128.579 167.203 122.634 174.57 122.634C181.933 122.634 187.905 128.579 187.905 135.913Z" fill="#556080"/>
<path d="M174.569 117.66C164.444 117.66 156.236 125.831 156.236 135.911C156.236 145.992 164.444 154.163 174.569 154.163C184.694 154.163 192.902 145.992 192.902 135.911C192.902 125.831 184.694 117.66 174.569 117.66ZM174.57 149.189C167.203 149.189 161.232 143.244 161.232 135.913C161.232 128.579 167.203 122.634 174.57 122.634C181.934 122.634 187.906 128.579 187.906 135.913C187.906 143.244 181.934 149.189 174.57 149.189Z" fill="#727C9A"/>
<path d="M136.964 56.9226C130.883 56.9226 125.954 61.83 125.954 67.8835V73.1679C125.954 79.2214 130.883 84.1288 136.964 84.1288C143.044 84.1288 147.974 79.2214 147.974 73.1679V67.8835C147.973 61.83 143.044 56.9226 136.964 56.9226Z" fill="#F9C295"/>
<path d="M153.265 100.527C148.616 103.668 143.006 105.503 136.964 105.503C130.923 105.503 125.312 103.668 120.664 100.527C121.195 95.996 124.345 92.2674 128.562 90.8644L128.558 90.8573C129.41 90.5744 129.885 90.5092 129.915 90.4938C132.275 90.0147 133.561 90.4014 141.661 90.2566C142.498 90.2566 143.264 90.3416 144.014 90.4938C144.047 90.5106 144.534 90.5795 145.371 90.8573L145.367 90.8644C149.584 92.2674 152.734 95.996 153.265 100.527Z" fill="#5C9CEE"/>
<path d="M144.127 59.5652L144.127 59.5638C137.117 53.5836 125.954 58.3892 125.954 67.8833V68.8965C127.575 69.6087 126.684 65.5 128.57 65.5C132.442 65.5 143.24 67.6535 145.645 65C147.166 67.3332 145.054 69.6427 147.973 69.9523C147.819 69.0856 148.907 63.6456 144.127 59.5652Z" fill="#444966"/>
<path d="M150.432 32.4703H123.496C121.174 32.4703 119.284 34.3513 119.284 36.6633V43.3036C119.284 45.6156 121.174 47.4966 123.496 47.4966H150.432C152.754 47.4966 154.644 45.6156 154.644 43.3036V36.6633C154.644 34.3513 152.754 32.4703 150.432 32.4703Z" fill="#D1D6DE"/>
</g>
<path d="M35.5594 160.566C30.0287 160.566 25.1444 159.453 20.9066 157.227C16.7406 154.928 13.652 151.804 11.6409 147.853L18.644 138.803C22.8819 145.052 28.2689 148.176 34.8052 148.176C38.612 148.176 41.5929 147.207 43.7477 145.267C45.9025 143.328 46.9799 140.814 46.9799 137.725C46.9799 134.278 45.723 131.656 43.209 129.86C40.7669 127.993 37.3551 127.059 32.9736 127.059H27.5865V114.669H32.4349C35.739 114.669 38.5043 113.699 40.731 111.76C42.9576 109.82 44.0709 107.342 44.0709 104.326C44.0709 101.453 43.2449 99.2259 41.5929 97.6457C39.9409 95.9937 37.5705 95.1677 34.482 95.1677C28.664 95.1677 23.9234 97.8612 20.2602 103.248L13.3647 94.5213C17.5307 86.6921 24.9648 82.7775 35.6671 82.7775C42.2034 82.7775 47.4468 84.5373 51.3973 88.0568C55.3478 91.5045 57.3231 96.1374 57.3231 101.955C57.3231 110.503 53.4803 116.465 45.7948 119.84V120.164C50.3199 120.954 53.8394 123.001 56.3534 126.305C58.9392 129.537 60.2321 133.488 60.2321 138.156C60.2321 144.98 57.8977 150.439 53.2289 154.533C48.5601 158.555 42.6703 160.566 35.5594 160.566Z" fill="white"/>
<defs>
<clipPath id="clip0">
<rect width="145.798" height="145.151" fill="white" transform="translate(79.6621 23.9424)"/>
</clipPath>
</defs>
</svg>
