<svg width="180" height="210" viewBox="0 0 180 210" fill="none" xmlns="http://www.w3.org/2000/svg">
<path d="M144.495 147.706V210H35.9023V147.706C35.9023 131.908 47.1851 118.739 62.1314 115.829H118.266C118.271 115.829 118.271 115.829 118.275 115.829C121.514 116.462 124.581 117.572 127.396 119.091C137.575 124.578 144.495 135.337 144.495 147.706Z" fill="#AD653D"/>
<path d="M75.9417 115.827H62.1294C47.1837 118.737 35.9004 131.906 35.9004 147.705V209.998H49.7126V147.705C49.7126 131.907 60.9954 118.737 75.9417 115.827Z" fill="#965535"/>
<path d="M40.7036 76.5075C34.7979 76.2456 30.0967 71.3734 30.0967 65.405C30.0967 59.2704 35.069 54.2932 41.2085 54.2932C41.7609 54.2932 42.3036 54.3311 42.8371 54.4122" fill="#E0B394"/>
<path d="M139.685 76.5076C145.591 76.2457 150.297 71.3734 150.297 65.405C150.297 59.2705 145.32 54.2933 139.18 54.2933C138.628 54.2933 138.08 54.336 137.552 54.4123" fill="#E0B394"/>
<path d="M74.1222 124.539L54.571 110.334C44.2395 102.827 38.6506 90.415 39.8783 77.7033L43.2692 42.611C45.6048 18.4421 65.915 0 90.1967 0C114.478 0 134.789 18.4421 137.124 42.611L140.515 77.7033C141.743 90.4145 136.154 102.827 125.822 110.334L106.271 124.539C96.6864 131.503 83.7074 131.503 74.1222 124.539Z" fill="#F7CBA4"/>
<path d="M75.4224 73.8235C75.4224 73.8235 76.8586 83.6934 64.7134 87.2659C64.7134 87.2659 73.2923 79.5134 69.7144 74.8826" fill="#E0B394"/>
<path d="M52.0448 84.6185C51.7158 90.1768 53.5257 95.6448 57.1075 99.9073L77.5416 125.017C78.6086 126.288 79.8184 127.356 81.1283 128.208C78.6703 127.351 76.3085 126.122 74.1221 124.536L54.5703 110.333C44.2398 102.826 38.6528 90.4149 39.8816 77.7027L43.2681 42.61C45.5827 18.6767 65.5203 0.358989 89.4915 0.0111084C74.7265 0.368221 58.0078 14.2854 57.1362 29.1072L52.0448 84.6185Z" fill="#E0B394"/>
<path d="M71.8508 77.3958H66.1375C64.1649 77.3958 62.5654 75.7968 62.5654 73.8237C62.5654 71.8506 64.1644 70.2516 66.1375 70.2516H71.8508C73.8235 70.2516 75.4229 71.8506 75.4229 73.8237C75.4229 75.7968 73.8235 77.3958 71.8508 77.3958Z" fill="#808080"/>
<path d="M104.971 73.8236C104.971 73.8236 103.535 83.6935 115.68 87.2661C115.68 87.2661 107.101 79.5136 110.679 74.8828" fill="#E0B394"/>
<path d="M119.566 62.6317C118.774 62.6317 117.981 62.3295 117.377 61.7251C114.08 58.4294 108.718 58.4294 105.421 61.7251C104.212 62.9344 102.252 62.9339 101.043 61.7251C99.834 60.5162 99.834 58.5558 101.043 57.3469C106.753 51.6366 116.045 51.6366 121.755 57.3469C122.965 58.5558 122.965 60.5162 121.756 61.7251C121.15 62.3295 120.358 62.6317 119.566 62.6317Z" fill="#E6E6E6"/>
<path d="M77.1613 62.6317C76.3688 62.6317 75.5764 62.3294 74.9724 61.725C71.6758 58.4284 66.3128 58.4284 63.0167 61.725C61.8079 62.9339 59.8474 62.9339 58.6386 61.725C57.4297 60.5162 57.4297 58.5557 58.6386 57.3469C64.349 51.6365 73.6407 51.6365 79.3511 57.3469C80.5599 58.5557 80.5599 60.5162 79.3511 61.725C78.7457 62.3294 77.9532 62.6317 77.1613 62.6317Z" fill="#E6E6E6"/>
<path d="M93.058 133.704H87.3428V209.997H93.058V133.704Z" fill="#965535"/>
<path d="M114.257 77.3958H108.543C106.571 77.3958 104.971 75.7968 104.971 73.8237C104.971 71.8506 106.57 70.2516 108.543 70.2516H114.257C116.23 70.2516 117.829 71.8506 117.829 73.8237C117.829 75.7968 116.23 77.3958 114.257 77.3958Z" fill="#808080"/>
<path d="M127.416 119.267C127.416 119.267 127.411 121.144 126.868 123.954C125.62 130.488 121.481 142.071 107.821 146.734L105.439 139.114L90.1983 157.212L74.9577 139.114L72.576 146.735C58.9163 142.072 54.7772 130.489 53.5246 123.954C52.9819 121.144 52.9771 119.268 52.9771 119.268C64.1029 124.264 78.968 126.017 86.9314 115.829C88.217 114.19 89.3175 112.243 90.1988 109.952C91.3183 112.867 93.166 114.71 95.4617 115.829C101.706 118.882 111.241 116.567 118.276 115.829C121.514 116.462 124.581 117.573 127.396 119.092C127.406 119.148 127.41 119.206 127.416 119.267Z" fill="#965535"/>
<path d="M135.807 108.813C133.483 110.571 130.602 112.271 127.415 113.705C114.498 119.505 96.547 120.934 90.1981 104.388C85.8112 115.805 75.9044 118.662 65.9408 117.434C61.4635 116.881 56.977 115.5 52.9764 113.704C49.7896 112.271 46.9089 110.57 44.584 108.812C54.4714 108.812 58.4438 98.2341 68.5698 91.8853C68.5746 91.8804 68.579 91.8761 68.579 91.8761C69.9409 91.019 71.4179 90.2426 73.0373 89.5755C79.2817 87.0033 83.844 87.9702 86.9545 89.7708C88.312 90.5564 89.4125 91.6477 90.2074 92.9241C91.0644 91.5622 92.265 90.4 93.7508 89.5949C96.8511 87.9085 101.314 87.0898 107.358 89.5755C120.981 95.1863 124.591 108.813 135.807 108.813Z" fill="#E6E6E6"/>
<path d="M127.416 113.705C127.416 113.705 127.411 115.582 126.868 118.391C125.62 124.925 121.481 136.509 107.821 141.172L105.439 133.551L90.1983 151.649L74.9572 133.551L73.5239 138.137L72.576 141.172C58.9163 136.509 54.7772 124.926 53.5246 118.391C52.9819 115.581 52.9771 113.705 52.9771 113.705C56.5351 115.305 60.4735 116.567 64.4503 117.215C74.9047 118.93 85.5928 116.376 90.1988 104.389C96.5472 120.935 114.499 119.506 127.416 113.705Z" fill="#E6E6E6"/>
<path d="M127.416 113.705C127.416 113.705 127.411 115.581 126.868 118.391C113.999 123.987 96.4578 125.144 90.1988 108.832C83.936 125.145 66.3943 123.987 53.5246 118.391C52.9819 115.58 52.9771 113.705 52.9771 113.705C65.8938 119.505 83.8452 120.934 90.1988 104.388C96.5472 120.935 114.499 119.506 127.416 113.705Z" fill="#CCCCCC"/>
<path d="M136.75 34.9018C136.547 34.9018 136.34 34.8844 136.132 34.8479L122.47 32.4662C120.527 32.1275 119.226 30.2774 119.564 28.3334C119.903 26.3899 121.749 25.0888 123.697 25.4279L137.36 27.8096C139.303 28.1483 140.604 29.9985 140.265 31.9424C139.962 33.6779 138.454 34.9018 136.75 34.9018Z" fill="#E6E6E6"/>
<path d="M139.736 47.977C139.517 47.977 139.295 47.9566 139.072 47.9148L126.388 45.5331C124.449 45.1692 123.172 43.3025 123.536 41.3629C123.899 39.4238 125.766 38.147 127.706 38.5109L140.391 40.8926C142.33 41.2565 143.607 43.1232 143.243 45.0628C142.92 46.7799 141.42 47.977 139.736 47.977Z" fill="#E6E6E6"/>
<path d="M43.6421 34.9018C41.9382 34.9018 40.4296 33.6784 40.1274 31.9424C39.7887 29.9989 41.0894 28.1487 43.0328 27.8096L56.6954 25.4279C58.6418 25.0883 60.4891 26.3899 60.8282 28.3334C61.1668 30.2768 59.8662 32.127 57.9227 32.4662L44.2596 34.8479C44.0522 34.8843 43.8457 34.9018 43.6421 34.9018Z" fill="#E6E6E6"/>
<path d="M40.6565 47.977C38.971 47.977 37.4721 46.7798 37.15 45.0633C36.7856 43.1246 38.0624 41.2575 40.002 40.8931L52.6866 38.5113C54.6257 38.1474 56.4928 39.4243 56.8567 41.3634C57.2211 43.302 55.9443 45.1692 54.0047 45.5336L41.3202 47.9153C41.0972 47.9576 40.8746 47.977 40.6565 47.977Z" fill="#E6E6E6"/>
<path d="M61.1398 210H53.9956L57.5682 148.083L61.1398 210Z" fill="#965535"/>
<path d="M126.391 210H119.247L122.82 148.083L126.391 210Z" fill="#965535"/>
<path d="M90.207 92.9249L96.4077 91.273C98.3171 90.7643 99.4531 88.8033 98.9444 86.8934L94.7188 71.0347" fill="#E0B394"/>
<path d="M101.876 164.67C103.849 164.67 105.448 163.07 105.448 161.098C105.448 159.125 103.849 157.525 101.876 157.525C99.903 157.525 98.3037 159.125 98.3037 161.098C98.3037 163.07 99.903 164.67 101.876 164.67Z" fill="#4D4D4D"/>
<path d="M101.874 181.456C103.847 181.456 105.446 179.857 105.446 177.884C105.446 175.911 103.847 174.312 101.874 174.312C99.9011 174.312 98.3018 175.911 98.3018 177.884C98.3018 179.857 99.9011 181.456 101.874 181.456Z" fill="#4D4D4D"/>
<path d="M101.874 198.314C103.847 198.314 105.446 196.715 105.446 194.742C105.446 192.77 103.847 191.17 101.874 191.17C99.9011 191.17 98.3018 192.77 98.3018 194.742C98.3018 196.715 99.9011 198.314 101.874 198.314Z" fill="#4D4D4D"/>
<path d="M73.5239 138.138L72.576 141.172C58.9163 136.509 54.7772 124.926 53.5246 118.391C52.9819 115.581 52.9771 113.705 52.9771 113.705C56.5351 115.305 60.4735 116.567 64.4503 117.215C64.6267 117.825 64.7171 118.482 64.7171 119.178C64.7166 130.102 70.7088 135.98 73.5239 138.138Z" fill="#CCCCCC"/>
<path d="M58.2874 109.889C59.4831 113.88 63.2646 116.228 65.9413 117.433C61.464 116.881 56.9775 115.5 52.9769 113.704C49.7901 112.271 46.9093 110.57 44.5845 108.812C54.4719 108.812 58.4443 98.234 68.5703 91.8851C68.2273 92.2097 56.3969 103.578 58.2874 109.889Z" fill="#CCCCCC"/>
</svg>
