<svg width="24" height="29" viewBox="0 0 24 29" fill="none" xmlns="http://www.w3.org/2000/svg">
<path d="M22.7323 18.8204C21.9747 20.8734 20.8291 22.6585 19.3268 24.1256C17.6167 25.7954 15.3775 27.1223 12.6713 28.0688C12.5825 28.0998 12.4898 28.1251 12.3967 28.1438C12.2737 28.1681 12.1486 28.1813 12.0245 28.183H12.0002C11.868 28.183 11.7351 28.1696 11.6033 28.1438C11.5102 28.1251 11.4188 28.0998 11.3304 28.0694C8.62097 27.1244 6.37897 25.7982 4.6672 24.1284C3.16421 22.6613 2.01881 20.8773 1.26237 18.8243C-0.113108 15.0915 -0.0348409 10.9795 0.0281597 7.67509L0.0292348 7.62435C0.041921 7.35149 0.0500917 7.06487 0.0546071 6.74836C0.0776141 5.19442 1.31311 3.90882 2.86727 3.82217C6.10761 3.64133 8.61431 2.58451 10.7561 0.496894L10.7748 0.479693C11.1305 0.153509 11.5786 -0.00646565 12.0245 0.000199973C12.4546 0.00579048 12.8829 0.16555 13.2258 0.479693L13.2441 0.496894C15.3863 2.58451 17.893 3.64133 21.1334 3.82217C22.6875 3.90882 23.923 5.19442 23.946 6.74836C23.9506 7.06702 23.9587 7.35321 23.9714 7.62435L23.9721 7.64585C24.0348 10.9565 24.1127 15.0767 22.7323 18.8204Z" fill="#FF84AC"/>
<path d="M19.7465 17.4693C19.1958 18.9357 18.363 20.2108 17.2709 21.2587C16.0278 22.4514 14.4 23.3992 12.4327 24.0753C12.3682 24.0974 12.3008 24.1155 12.2331 24.1289C12.1437 24.1462 12.0527 24.1556 11.9626 24.1568H11.9449C11.8488 24.1568 11.7522 24.1473 11.6564 24.1289C11.5887 24.1155 11.5222 24.0974 11.458 24.0757C9.48838 23.4007 7.85857 22.4534 6.61422 21.2607C5.52164 20.2128 4.68899 18.9385 4.13911 17.472C3.13921 14.8058 3.19611 11.8686 3.24191 9.50833L3.24269 9.47209C3.25191 9.27719 3.25785 9.07246 3.26113 8.84638C3.27786 7.73642 4.17599 6.81814 5.30578 6.75624C7.66131 6.62708 9.48354 5.87221 11.0405 4.38105L11.0541 4.36876C11.3126 4.13577 11.6384 4.0215 11.9626 4.02627C12.2752 4.03026 12.5865 4.14437 12.8358 4.36876L12.8491 4.38105C14.4064 5.87221 16.2286 6.62708 18.5842 6.75624C19.7139 6.81814 20.6121 7.73642 20.6288 8.84638C20.6321 9.07399 20.638 9.27842 20.6473 9.47209L20.6477 9.48744C20.6934 11.8522 20.7499 14.7952 19.7465 17.4693Z" fill="white" fill-opacity="0.3"/>
</svg>
